<svg width="35" height="5" viewBox="0 0 35 5" fill="none" xmlns="http://www.w3.org/2000/svg">
<g id="Group 6">
<line id="Line 2" x1="32.5" y1="2.5" x2="2.5" y2="2.5" stroke="#1A73E8" stroke-width="5" stroke-linecap="round"/>
</g>
</svg>
